ENSG00000133055
ENSG00000215853
ENSG00000110195
ENSG00000155816
ENSG00000124491
ENSG00000198336
ENSG00000153233
ENSG00000143217
ENSG00000259316
ENSG00000204542
ENSG00000198796
ENSG00000170571
ENSG00000159251
ENSG00000038427
ENSG00000159173
ENSG00000169271
ENSG00000226985
ENSG00000024526
ENSG00000122180
ENSG00000169679
ENSG00000188985
ENSG00000225613
ENSG00000280435
ENSG00000146910
ENSG00000139734
ENSG00000115221
ENSG00000126787
ENSG00000178999
ENSG00000214814
ENSG00000091482
ENSG00000271361
ENSG00000272825
ENSG00000077152
ENSG00000261786
ENSG00000090889
ENSG00000168078
ENSG00000150556
ENSG00000156970
ENSG00000272398
ENSG00000138379
ENSG00000042493
ENSG00000111245
ENSG00000177243
ENSG00000060718
ENSG00000170681
ENSG00000257859
ENSG00000180209
ENSG00000163485
ENSG00000234703
ENSG00000213190
ENSG00000169607
ENSG00000148344
ENSG00000165891
ENSG00000154096
ENSG00000118194
ENSG00000128340
ENSG00000109805
ENSG00000267257
ENSG00000092054
ENSG00000149090
ENSG00000154277
ENSG00000283162
ENSG00000114854
ENSG00000133985
ENSG00000136542
ENSG00000187210
ENSG00000162551
ENSG00000254586
ENSG00000129173
ENSG00000141161
ENSG00000011426
ENSG00000128606
ENSG00000176788
ENSG00000170312
ENSG00000143632
ENSG00000199080
ENSG00000124743
ENSG00000121769
ENSG00000276043
ENSG00000197614
ENSG00000137819
ENSG00000164176
ENSG00000172927
ENSG00000179750
ENSG00000260027
ENSG00000077009
ENSG00000229647
ENSG00000120075
ENSG00000088325
ENSG00000180999
ENSG00000112984
ENSG00000134716
ENSG00000172995
ENSG00000187616
ENSG00000105048
ENSG00000139329
ENSG00000227877
ENSG00000185269
ENSG00000168530
ENSG00000182261
ENSG00000129152
ENSG00000108515
ENSG00000163814
ENSG00000137807
ENSG00000112742
ENSG00000165480
ENSG00000131747
ENSG00000123485
ENSG00000122952
ENSG00000197177
ENSG00000121211
ENSG00000197191
ENSG00000067715
ENSG00000197415
ENSG00000244215
ENSG00000183856
ENSG00000143476
ENSG00000174371
ENSG00000169583
ENSG00000066279
ENSG00000115592
ENSG00000138180
ENSG00000167900
ENSG00000122862
ENSG00000197943
ENSG00000133020
ENSG00000138771
ENSG00000115593
ENSG00000157542
ENSG00000174407
ENSG00000131737
ENSG00000186340
ENSG00000175315
ENSG00000157765
ENSG00000111665
ENSG00000197616
ENSG00000270112
ENSG00000107984
ENSG00000143369
ENSG00000138347
ENSG00000205562
ENSG00000166803
ENSG00000080493
ENSG00000178031
ENSG00000138944
ENSG00000279493
ENSG00000136153
ENSG00000203786
ENSG00000263873
ENSG00000283128
ENSG00000171848
ENSG00000163380
ENSG00000134690
ENSG00000108878
ENSG00000108511
ENSG00000268518
ENSG00000121152
ENSG00000171241
ENSG00000271524
ENSG00000276851
ENSG00000254680
ENSG00000113083
ENSG00000267784
ENSG00000143512
ENSG00000157613
ENSG00000165304
ENSG00000163808
ENSG00000048052
ENSG00000189052
ENSG00000269145
ENSG00000117586
ENSG00000065328
ENSG00000127564
ENSG00000133083
ENSG00000125414
ENSG00000170558
ENSG00000147166
ENSG00000167767
ENSG00000064195
ENSG00000166317
ENSG00000285155
ENSG00000164761
ENSG00000183671
ENSG00000227039
ENSG00000247134
ENSG00000139278
ENSG00000132688
ENSG00000166851
ENSG00000186897
ENSG00000137142
ENSG00000173868
ENSG00000114251
ENSG00000109061
ENSG00000143228
ENSG00000148677
ENSG00000172399
ENSG00000235902
ENSG00000133101
ENSG00000064787
ENSG00000166396
ENSG00000262179
ENSG00000237819
ENSG00000119686
ENSG00000255624
ENSG00000168621
ENSG00000164694
ENSG00000127329
ENSG00000258691
ENSG00000167306
ENSG00000205426
ENSG00000128944
ENSG00000257219
ENSG00000144278
ENSG00000089327
ENSG00000180287
ENSG00000154027
ENSG00000196465
ENSG00000008394
ENSG00000232053
ENSG00000276527
ENSG00000137573
ENSG00000146678
ENSG00000242715
ENSG00000094804
ENSG00000196460
ENSG00000162892
ENSG00000231924
ENSG00000272622
ENSG00000171320
ENSG00000108018
ENSG00000159167
ENSG00000225867
ENSG00000285525
ENSG00000236719
ENSG00000285936
ENSG00000140285
ENSG00000185847
ENSG00000137812
ENSG00000273541
ENSG00000100162
ENSG00000158402
ENSG00000006606
ENSG00000248596
ENSG00000182667
ENSG00000108825
ENSG00000257849
ENSG00000229720
ENSG00000160224
ENSG00000136108
ENSG00000158869
ENSG00000213145
ENSG00000117724
ENSG00000164729
ENSG00000072571
ENSG00000248869
ENSG00000280079
ENSG00000144583
ENSG00000196811
ENSG00000160255
ENSG00000103522
ENSG00000205683
ENSG00000171428
ENSG00000204767
ENSG00000011677
ENSG00000120669
ENSG00000178796
ENSG00000261039
ENSG00000175294
ENSG00000183287
ENSG00000056998
ENSG00000146386
ENSG00000181019
ENSG00000081189
ENSG00000180914
ENSG00000253658
ENSG00000168743
ENSG00000080986
ENSG00000164087
ENSG00000167157
ENSG00000138395
ENSG00000159618
ENSG00000093009
ENSG00000158164
ENSG00000165140
ENSG00000256568
ENSG00000166165
ENSG00000231345
ENSG00000271977
ENSG00000172508
ENSG00000135451
ENSG00000105251
ENSG00000157111
ENSG00000143631
ENSG00000122477
ENSG00000230090
ENSG00000164692
ENSG00000169876
ENSG00000142669
ENSG00000285723
ENSG00000168334
ENSG00000132932
ENSG00000100739
ENSG00000142661
ENSG00000175567
ENSG00000283537
ENSG00000136457
ENSG00000267279
ENSG00000180875
ENSG00000162614
ENSG00000100526
ENSG00000228716
ENSG00000250986
ENSG00000230417
ENSG00000134516
ENSG00000097021
ENSG00000205336
ENSG00000225402
ENSG00000154864
ENSG00000162894
ENSG00000245466
ENSG00000171840
ENSG00000168509
ENSG00000168925
ENSG00000229278
ENSG00000151725
ENSG00000165410
ENSG00000250320
ENSG00000140557
ENSG00000233117
ENSG00000285681
ENSG00000155324
ENSG00000178033
ENSG00000128683
ENSG00000111247
ENSG00000170891
ENSG00000226808
ENSG00000235162
ENSG00000109861
ENSG00000234281
ENSG00000142945
ENSG00000112183
ENSG00000145247
ENSG00000236345
ENSG00000155966
ENSG00000168938
ENSG00000236230
ENSG00000250303
ENSG00000081248
ENSG00000146670
ENSG00000134057
ENSG00000159166
ENSG00000102683
ENSG00000115290
ENSG00000163520
ENSG00000243509
ENSG00000136928
ENSG00000109511
ENSG00000142731
ENSG00000085840
ENSG00000158125
ENSG00000183873
ENSG00000129354
ENSG00000165490
ENSG00000131015
ENSG00000203760
ENSG00000087589
ENSG00000165973
ENSG00000275874
ENSG00000165061
ENSG00000106034
ENSG00000149043
ENSG00000197635
ENSG00000100196
ENSG00000170893
ENSG00000224857
ENSG00000227048
ENSG00000119888
ENSG00000261040
ENSG00000163285
ENSG00000279118
ENSG00000265415
ENSG00000047617
ENSG00000138160
ENSG00000170374
ENSG00000226094
ENSG00000152422
ENSG00000101003
ENSG00000143847
ENSG00000147145
ENSG00000139209
ENSG00000068489
ENSG00000047936
ENSG00000117650
ENSG00000064042
ENSG00000035499
ENSG00000185739
ENSG00000153904
ENSG00000129009
ENSG00000129810
ENSG00000133063
ENSG00000198826
ENSG00000145386
ENSG00000181104
ENSG00000118729
ENSG00000159516
ENSG00000234264
ENSG00000078725
ENSG00000167941
ENSG00000049540
ENSG00000214114
ENSG00000074590
ENSG00000197472
ENSG00000189057
ENSG00000167191
ENSG00000254226
ENSG00000103089
ENSG00000248283
ENSG00000273162
ENSG00000166033
ENSG00000147852
ENSG00000188549
ENSG00000268621
ENSG00000162062
ENSG00000126264
ENSG00000258183
ENSG00000157456
ENSG00000254764
ENSG00000282057
ENSG00000285980
ENSG00000126860
ENSG00000109674
ENSG00000148773
ENSG00000201699
ENSG00000232743
ENSG00000184937
ENSG00000205542
ENSG00000260192
ENSG00000117308
ENSG00000231698
ENSG00000198682
ENSG00000215009
ENSG00000265303
ENSG00000092853
ENSG00000186038
ENSG00000267316
ENSG00000108813
ENSG00000243137
ENSG00000130595
ENSG00000241280
ENSG00000182533
ENSG00000173641
ENSG00000198331
ENSG00000272540
ENSG00000159348
ENSG00000104783
ENSG00000152253
ENSG00000119681
ENSG00000247775
ENSG00000124019
ENSG00000179133
ENSG00000164112
ENSG00000229027
ENSG00000095203
ENSG00000170054
ENSG00000179300
ENSG00000138092
ENSG00000259115
ENSG00000160097
ENSG00000234795
ENSG00000175920
ENSG00000137809
ENSG00000140416
ENSG00000176890
ENSG00000155657
ENSG00000254560
ENSG00000223478
ENSG00000156510
ENSG00000139410
ENSG00000104723
ENSG00000285769
ENSG00000142621
ENSG00000246430
ENSG00000185962
ENSG00000230387
ENSG00000078401
ENSG00000111913
ENSG00000104879
ENSG00000232535
ENSG00000221844
ENSG00000196230
ENSG00000128567
ENSG00000131462
ENSG00000224722
ENSG00000162073
ENSG00000273415
ENSG00000258279
ENSG00000124479
ENSG00000115828
ENSG00000243955
ENSG00000256940
ENSG00000224287
ENSG00000152137
ENSG00000161800
ENSG00000112186
ENSG00000163092
ENSG00000237659
ENSG00000240801
ENSG00000236242
ENSG00000105696
ENSG00000162520
ENSG00000130940
ENSG00000078098
ENSG00000274428
ENSG00000141316
ENSG00000160326
ENSG00000163492
ENSG00000115514
ENSG00000204481
ENSG00000168528
ENSG00000283740
ENSG00000230280
ENSG00000109919
ENSG00000203805
ENSG00000197555
ENSG00000076382
ENSG00000146918
ENSG00000223749
ENSG00000164109
ENSG00000094796
ENSG00000141574
ENSG00000175063
ENSG00000138772
ENSG00000102384
ENSG00000099194
ENSG00000106013
ENSG00000139211
ENSG00000248964
ENSG00000160808
ENSG00000101333
ENSG00000216490
ENSG00000123219
ENSG00000236306
ENSG00000107105
ENSG00000235532
ENSG00000184357
ENSG00000107819
ENSG00000145604
ENSG00000161888
ENSG00000228221
ENSG00000103888
ENSG00000176490
ENSG00000139985
ENSG00000198901
ENSG00000184635
ENSG00000114850
ENSG00000162105
ENSG00000196420
ENSG00000267209
ENSG00000108821
ENSG00000144354
ENSG00000188120
ENSG00000115232
ENSG00000188452
ENSG00000214517
ENSG00000232528
ENSG00000089685
ENSG00000010292
ENSG00000197275
ENSG00000145681
ENSG00000204941
ENSG00000079215
ENSG00000064309
ENSG00000021645
ENSG00000133048
ENSG00000068615
ENSG00000227053
ENSG00000181381
ENSG00000185480
ENSG00000134198
ENSG00000077984
ENSG00000006451
ENSG00000140287
ENSG00000106992
ENSG00000083454
ENSG00000145287
ENSG00000162512
ENSG00000143942
ENSG00000187510
ENSG00000196296
ENSG00000272121
ENSG00000051180
ENSG00000079462
ENSG00000169071
ENSG00000065833
ENSG00000165072
ENSG00000204381
ENSG00000170190
ENSG00000257341
ENSG00000279809
ENSG00000198736
ENSG00000177822
ENSG00000185088
ENSG00000162511
ENSG00000218336
ENSG00000050405
ENSG00000004848
ENSG00000251002
ENSG00000225614
ENSG00000234323
ENSG00000285845
ENSG00000163430
ENSG00000187908
ENSG00000225383
ENSG00000283235
ENSG00000101463
ENSG00000205044
ENSG00000143167
ENSG00000248587
ENSG00000166073
ENSG00000150687
ENSG00000135318
ENSG00000118193
ENSG00000130528
ENSG00000128595
ENSG00000249992
ENSG00000274267
ENSG00000184160
ENSG00000225581
ENSG00000198648
ENSG00000130429
ENSG00000236819
ENSG00000186847
ENSG00000273664
ENSG00000198053
ENSG00000203722
ENSG00000087586
ENSG00000143105
ENSG00000228857
ENSG00000142182
ENSG00000178980
ENSG00000261553
ENSG00000153823
ENSG00000171792
ENSG00000138778
ENSG00000112414
ENSG00000249623
ENSG00000120708
ENSG00000166922
ENSG00000173210
ENSG00000163449
ENSG00000250644
ENSG00000271334
ENSG00000099960
ENSG00000138346
ENSG00000250831
ENSG00000158186
ENSG00000184838
ENSG00000254986
ENSG00000146674
ENSG00000179057
ENSG00000248008
ENSG00000109452
ENSG00000138100
ENSG00000178996
ENSG00000117155
ENSG00000183250
ENSG00000189159
ENSG00000229563
ENSG00000183780
ENSG00000124564
ENSG00000060140
ENSG00000179222
ENSG00000215375
ENSG00000067225
ENSG00000122861
ENSG00000130772
ENSG00000135636
ENSG00000249729
ENSG00000167083
ENSG00000183010
ENSG00000279945
ENSG00000101057
ENSG00000131650
ENSG00000259881
ENSG00000138356
ENSG00000162496
ENSG00000257890
ENSG00000135437
ENSG00000140525
ENSG00000138758
ENSG00000161653
ENSG00000165996
ENSG00000129474
ENSG00000230066
ENSG00000171812
ENSG00000149591
ENSG00000163507
ENSG00000224259
ENSG00000237649
ENSG00000198910
ENSG00000068438
ENSG00000124116
ENSG00000101282
ENSG00000269416
ENSG00000284879
ENSG00000163235
ENSG00000111602
ENSG00000122691
ENSG00000225519
ENSG00000174403
ENSG00000120088
ENSG00000232774
ENSG00000155897
ENSG00000158292
ENSG00000091490
ENSG00000101638
ENSG00000232337
ENSG00000141198
ENSG00000223703
ENSG00000167552
ENSG00000117399
ENSG00000223784
ENSG00000175274
ENSG00000236546
ENSG00000259847
ENSG00000170043
ENSG00000250341
ENSG00000096433
ENSG00000284862
ENSG00000131944
ENSG00000172403
ENSG00000267374
ENSG00000136783
ENSG00000198842
ENSG00000249835
ENSG00000183979
ENSG00000168899
ENSG00000157404
ENSG00000198960
ENSG00000187634
ENSG00000233485
ENSG00000065054
ENSG00000267886
ENSG00000164294
ENSG00000129195
ENSG00000101928
ENSG00000184349
ENSG00000247095
ENSG00000104047
ENSG00000203280
ENSG00000029153
ENSG00000248927
ENSG00000138119
ENSG00000128408
ENSG00000104611
ENSG00000163923
ENSG00000128656
ENSG00000164930
ENSG00000003249
ENSG00000075223
ENSG00000118640
ENSG00000121621
ENSG00000052802
ENSG00000178776
ENSG00000169019
ENSG00000205413
ENSG00000101470
ENSG00000110092
ENSG00000029993
ENSG00000065361
ENSG00000267530
ENSG00000187123
ENSG00000285041
ENSG00000251349
ENSG00000169213
ENSG00000234261
ENSG00000232679
ENSG00000183023
ENSG00000184895
ENSG00000106526
ENSG00000147010
ENSG00000262621
ENSG00000215861
ENSG00000157168
ENSG00000171084
ENSG00000213030
ENSG00000266088
ENSG00000243317
ENSG00000238042
ENSG00000122778
ENSG00000008517
ENSG00000102312
ENSG00000162757
ENSG00000279674
ENSG00000125618
ENSG00000167244
ENSG00000229051
ENSG00000131475
ENSG00000064666
ENSG00000153048
ENSG00000100890
ENSG00000197299
ENSG00000106772
ENSG00000234129
ENSG00000177685
ENSG00000091986
ENSG00000076706
ENSG00000167196
ENSG00000144554
ENSG00000186638
ENSG00000230578
ENSG00000103381
ENSG00000011105
ENSG00000242615
ENSG00000168894
ENSG00000257732
ENSG00000178401
ENSG00000231776
ENSG00000101608
ENSG00000227496
ENSG00000022355
ENSG00000139915
ENSG00000162444
ENSG00000284057
ENSG00000124701
ENSG00000221926
ENSG00000137804
ENSG00000198554
ENSG00000064490
ENSG00000086300
ENSG00000119013
ENSG00000243130
ENSG00000151012
ENSG00000159248
ENSG00000157766
ENSG00000109063
ENSG00000121900
ENSG00000111196
ENSG00000062524
ENSG00000214194
ENSG00000203711
ENSG00000165609
ENSG00000242114
ENSG00000005884
ENSG00000071539
ENSG00000166825
ENSG00000237803
ENSG00000017483
ENSG00000136068
ENSG00000168291
ENSG00000113578
ENSG00000169504
ENSG00000235881
ENSG00000163918
ENSG00000269397
ENSG00000225826
ENSG00000135902
ENSG00000183763
ENSG00000145979
ENSG00000124813
ENSG00000204147
ENSG00000113790
ENSG00000094841
ENSG00000196923
ENSG00000162063
ENSG00000116183
ENSG00000259146
ENSG00000253174
ENSG00000104415
ENSG00000182180
ENSG00000126878
ENSG00000104081
ENSG00000164418
ENSG00000226087
ENSG00000172000
ENSG00000264964
ENSG00000183850
ENSG00000258749
ENSG00000196118
ENSG00000182010
ENSG00000233290
ENSG00000174442
ENSG00000105851
ENSG00000118961
ENSG00000018236
ENSG00000170454
ENSG00000135426
ENSG00000133216
ENSG00000255967
ENSG00000101955
ENSG00000170017
ENSG00000237807
ENSG00000185070
ENSG00000111229
ENSG00000197043
ENSG00000095002
ENSG00000258964
ENSG00000227579
ENSG00000136824
ENSG00000137563
ENSG00000016402
ENSG00000110880
ENSG00000140950
ENSG00000155868
ENSG00000267774
ENSG00000182628
ENSG00000124212
ENSG00000230839
ENSG00000116133
ENSG00000233431
ENSG00000214846
ENSG00000156395
ENSG00000109436
ENSG00000258405
ENSG00000118894
ENSG00000040275
ENSG00000110063
ENSG00000018510
ENSG00000174775
ENSG00000136490
ENSG00000273143
ENSG00000183255
ENSG00000100097
ENSG00000204449
ENSG00000163661
ENSG00000285564
ENSG00000171051
ENSG00000177700
ENSG00000050165
ENSG00000237976
ENSG00000164708
ENSG00000214050
ENSG00000231054
ENSG00000184661
ENSG00000130347
ENSG00000133678
ENSG00000116990
ENSG00000091409
ENSG00000130598
ENSG00000106436
ENSG00000139998
ENSG00000049192
ENSG00000123473
ENSG00000075188
ENSG00000149294
ENSG00000073969
ENSG00000249937
ENSG00000188501
ENSG00000108384
ENSG00000261036
ENSG00000138182
ENSG00000137124
ENSG00000115380
ENSG00000129235
ENSG00000122367
ENSG00000100554
ENSG00000164885
ENSG00000151117
ENSG00000226287
ENSG00000253414
ENSG00000281186
ENSG00000067191
ENSG00000147573
ENSG00000118785
ENSG00000183160
ENSG00000257591
ENSG00000226686
ENSG00000099250
ENSG00000136717
ENSG00000261602
ENSG00000260442
ENSG00000121690
ENSG00000158825
ENSG00000137975
ENSG00000049883
ENSG00000155886
ENSG00000169188
ENSG00000123353
ENSG00000260342
ENSG00000120509
ENSG00000160392
ENSG00000101134
ENSG00000132329
ENSG00000146425
ENSG00000131100
ENSG00000223485
ENSG00000160446
ENSG00000254721
ENSG00000164743
ENSG00000138623
ENSG00000183691
ENSG00000110492
ENSG00000154153
ENSG00000182742
ENSG00000172123
ENSG00000105750
ENSG00000162144
ENSG00000181991
ENSG00000131153
ENSG00000279753
ENSG00000196549
ENSG00000147536
ENSG00000172164
ENSG00000275185
ENSG00000079459
ENSG00000156885
ENSG00000198028
ENSG00000278318
ENSG00000042088
ENSG00000224071
ENSG00000104889
ENSG00000271936
ENSG00000197061
ENSG00000234520
ENSG00000172244
ENSG00000158019
ENSG00000162390
ENSG00000174695
ENSG00000184384
ENSG00000142583
ENSG00000101447
ENSG00000059691
ENSG00000106853
ENSG00000239282
ENSG00000177556
ENSG00000106392
ENSG00000082397
ENSG00000172379
ENSG00000129038
ENSG00000167912
ENSG00000023608
ENSG00000141753
ENSG00000109881
ENSG00000180730
ENSG00000123453
ENSG00000166963
ENSG00000013810
ENSG00000278238
ENSG00000196341
ENSG00000113732
ENSG00000123416
ENSG00000100865
ENSG00000114573
ENSG00000278978
ENSG00000160752
ENSG00000105971
ENSG00000166797
ENSG00000170624
ENSG00000069509
ENSG00000037241
ENSG00000145075
ENSG00000114405
ENSG00000185002
ENSG00000175600
ENSG00000039560
ENSG00000118680
ENSG00000113812
ENSG00000255526
ENSG00000105011
ENSG00000196812
ENSG00000234155
ENSG00000164733
ENSG00000083457
ENSG00000158483
ENSG00000213186
ENSG00000119403
ENSG00000277734
ENSG00000143473
ENSG00000065534
ENSG00000164932
ENSG00000264019
ENSG00000101812
ENSG00000135698
ENSG00000111206
ENSG00000141552
ENSG00000279780
ENSG00000204362
ENSG00000162631
ENSG00000186026
ENSG00000272975
ENSG00000142657
ENSG00000087116
ENSG00000172586
ENSG00000146476
ENSG00000111252
ENSG00000100678
ENSG00000163634
ENSG00000131730
ENSG00000197077
ENSG00000137198
ENSG00000176014
ENSG00000280832
ENSG00000122574
ENSG00000143549
ENSG00000275004
ENSG00000165501
ENSG00000104147
ENSG00000196290
ENSG00000230479
ENSG00000237797
ENSG00000126067
ENSG00000236591
ENSG00000103018
ENSG00000000460
ENSG00000111780
ENSG00000198467
ENSG00000237651
ENSG00000251126
ENSG00000127824
ENSG00000187778
ENSG00000112312
ENSG00000263528
ENSG00000249628
ENSG00000034510
ENSG00000072110
ENSG00000161850
ENSG00000169047
ENSG00000132313
ENSG00000023697
ENSG00000197128
ENSG00000184860
ENSG00000006757
ENSG00000197798
ENSG00000167920
ENSG00000269072
ENSG00000213719
ENSG00000167264
ENSG00000157036
ENSG00000103415
ENSG00000111639
ENSG00000162620
ENSG00000064199
ENSG00000162368
ENSG00000129055
ENSG00000134013
ENSG00000187672
ENSG00000145817
ENSG00000186300
ENSG00000127589
ENSG00000110031
ENSG00000102743
ENSG00000123700
ENSG00000244067
ENSG00000138794
ENSG00000250041
ENSG00000234756
ENSG00000114054
ENSG00000100344
ENSG00000109929
ENSG00000233397
ENSG00000204899
ENSG00000232119
ENSG00000147614
ENSG00000168874
ENSG00000198937
ENSG00000241098
ENSG00000135919
ENSG00000198915
ENSG00000196981
ENSG00000102048
ENSG00000061337
ENSG00000255639
ENSG00000166260
ENSG00000042753
ENSG00000169981
ENSG00000183726
ENSG00000277443
ENSG00000058056
ENSG00000140105
ENSG00000087053
ENSG00000072682
ENSG00000234546
ENSG00000053438
ENSG00000184207
ENSG00000160447
ENSG00000240225
ENSG00000174827
ENSG00000240344
ENSG00000110876
ENSG00000082126
ENSG00000070961
ENSG00000112079
ENSG00000070081
ENSG00000131711
ENSG00000136937
ENSG00000166750
ENSG00000213976
ENSG00000172339
ENSG00000070882
ENSG00000173542
ENSG00000181610
ENSG00000134779
ENSG00000167553
ENSG00000111481
ENSG00000173950
ENSG00000198959
ENSG00000117115
ENSG00000169139
ENSG00000260804
ENSG00000227028
ENSG00000177156
ENSG00000156531
ENSG00000189223
ENSG00000118137
ENSG00000133313
ENSG00000139174
ENSG00000150630
ENSG00000105355
ENSG00000259070
ENSG00000105974
ENSG00000151364
ENSG00000157538
ENSG00000232818
ENSG00000182199
ENSG00000070087
ENSG00000115884
ENSG00000065308
ENSG00000054392
ENSG00000100889
ENSG00000258644
ENSG00000160588
ENSG00000204516
ENSG00000175216
ENSG00000106268
ENSG00000115762
ENSG00000104435
ENSG00000163156
ENSG00000174307
ENSG00000131037
ENSG00000140534
ENSG00000157510
ENSG00000073737
ENSG00000165934
ENSG00000103855
ENSG00000079616
ENSG00000243147
ENSG00000205054
ENSG00000134575
ENSG00000120437
ENSG00000176024
ENSG00000196502
ENSG00000147592
ENSG00000149380
ENSG00000130517
ENSG00000171067
ENSG00000120693
ENSG00000169567
ENSG00000135537
ENSG00000215262
ENSG00000258017
ENSG00000273264
ENSG00000134243
ENSG00000164211
ENSG00000171314
ENSG00000112992
ENSG00000130147
ENSG00000149636
ENSG00000116586
ENSG00000178966
ENSG00000166446
ENSG00000196730
ENSG00000143622
ENSG00000233101
ENSG00000071127
ENSG00000277758
ENSG00000180879
ENSG00000197905
ENSG00000267484
ENSG00000242111
ENSG00000122687
ENSG00000148925
ENSG00000166394
ENSG00000164405
ENSG00000031691
ENSG00000164051
ENSG00000136010
ENSG00000063438
ENSG00000146250
ENSG00000101150
ENSG00000259527
ENSG00000132646
ENSG00000127884
ENSG00000198856
ENSG00000160213
ENSG00000156802
ENSG00000166451
ENSG00000110442
ENSG00000001461
ENSG00000145555
ENSG00000185567
ENSG00000168496
ENSG00000115159
ENSG00000149554
ENSG00000162396
ENSG00000250827
ENSG00000273897
ENSG00000168393
ENSG00000165682
ENSG00000142230
ENSG00000213977
ENSG00000267459
ENSG00000131779
ENSG00000023330
ENSG00000116161
ENSG00000136628
ENSG00000213123
ENSG00000154839
ENSG00000006016
ENSG00000121236
ENSG00000173157
ENSG00000022267
ENSG00000147383
ENSG00000184319
ENSG00000197747
ENSG00000146143
ENSG00000156515
ENSG00000170779
ENSG00000090263
ENSG00000261251
ENSG00000153551
ENSG00000198853
ENSG00000144843
ENSG00000136867
ENSG00000105171
ENSG00000135828
ENSG00000129116
ENSG00000139354
ENSG00000106617
ENSG00000177335
ENSG00000104313
ENSG00000140365
ENSG00000178802
ENSG00000108039
ENSG00000102144
ENSG00000143797
ENSG00000101843
ENSG00000259383
ENSG00000173207
ENSG00000185652
ENSG00000187840
ENSG00000196139
ENSG00000177963
ENSG00000174837
ENSG00000167862
ENSG00000041357
ENSG00000074416
ENSG00000138413
ENSG00000006042
ENSG00000171174
ENSG00000156253
ENSG00000174370
ENSG00000109079
ENSG00000163832
ENSG00000166189
ENSG00000168952
ENSG00000105793
ENSG00000103966
ENSG00000189369
ENSG00000176261
ENSG00000143870
ENSG00000184076
ENSG00000011009
ENSG00000117226
ENSG00000157119
ENSG00000136122
ENSG00000273451
ENSG00000198538
ENSG00000172500
ENSG00000152292
ENSG00000107745
ENSG00000133816
ENSG00000055147
ENSG00000180257
ENSG00000092841
ENSG00000103550
ENSG00000267228
ENSG00000111640
ENSG00000068097
ENSG00000279633
ENSG00000115129
ENSG00000188042
ENSG00000186193
ENSG00000123415
ENSG00000241468
ENSG00000131236
ENSG00000147155
ENSG00000164011
ENSG00000104738
ENSG00000155660
ENSG00000241685
ENSG00000163331
ENSG00000108219
ENSG00000183161
ENSG00000113140
ENSG00000137845
ENSG00000127423
ENSG00000238048
ENSG00000162522
ENSG00000267500
ENSG00000182022
ENSG00000139618
ENSG00000134202
ENSG00000136026
ENSG00000106399
ENSG00000120539
ENSG00000164332
ENSG00000076242
ENSG00000138411
ENSG00000113643
ENSG00000116157
ENSG00000091140
ENSG00000124610
ENSG00000198924
ENSG00000228474
ENSG00000278023
ENSG00000240204
ENSG00000150779
ENSG00000163170
ENSG00000183444
ENSG00000154040
ENSG00000172270
ENSG00000144744
ENSG00000244242
ENSG00000119912
ENSG00000255129
ENSG00000117305
ENSG00000168928
ENSG00000165806
ENSG00000174405
ENSG00000176473
ENSG00000139719
ENSG00000087088
ENSG00000144815
ENSG00000122783
ENSG00000197935
ENSG00000205352
ENSG00000065457
ENSG00000151465
ENSG00000164244
ENSG00000284946
ENSG00000075711
ENSG00000119661
ENSG00000139291
ENSG00000166619
ENSG00000135476
ENSG00000255561
ENSG00000107960
ENSG00000161203
ENSG00000285838
ENSG00000030110
ENSG00000162616
ENSG00000101811
ENSG00000250021
ENSG00000035403
ENSG00000005194
ENSG00000106305
ENSG00000075218
ENSG00000077380
ENSG00000279059
ENSG00000149257
ENSG00000153767
ENSG00000173221
ENSG00000159720
ENSG00000087008
ENSG00000070010
ENSG00000198056
ENSG00000063660
ENSG00000100038
ENSG00000183340
ENSG00000119969
ENSG00000181789
ENSG00000164347
ENSG00000198677
ENSG00000213281
ENSG00000249279
ENSG00000198001
ENSG00000156535
ENSG00000229696
ENSG00000114416
ENSG00000006534
ENSG00000110871
ENSG00000116171
ENSG00000260136
ENSG00000060982
ENSG00000104660
ENSG00000143252
ENSG00000091947
ENSG00000162704
ENSG00000051523
ENSG00000111667
ENSG00000103066
ENSG00000240747
ENSG00000090861
ENSG00000084073
ENSG00000256053
ENSG00000135148
ENSG00000115540
ENSG00000158864
ENSG00000170579
ENSG00000137288
ENSG00000162441
ENSG00000149925
ENSG00000165916
ENSG00000237031
ENSG00000106355
ENSG00000117592
ENSG00000258232
ENSG00000136404
ENSG00000257303
ENSG00000230453
ENSG00000154518
ENSG00000166682
ENSG00000203780
ENSG00000119878
ENSG00000212978
ENSG00000162639
ENSG00000110717
ENSG00000164002
ENSG00000151445
ENSG00000272970
ENSG00000140945
ENSG00000103769
ENSG00000112110
ENSG00000112118
ENSG00000068784
ENSG00000147400
ENSG00000110583
ENSG00000138107
ENSG00000113312
ENSG00000119203
ENSG00000177697
ENSG00000115685
ENSG00000162521
ENSG00000133119
ENSG00000179387
ENSG00000169764
ENSG00000155115
ENSG00000155366
ENSG00000172531
ENSG00000237238
ENSG00000032389
ENSG00000236674
ENSG00000115091
ENSG00000144485
ENSG00000169689
ENSG00000172757
ENSG00000166840
ENSG00000243789
ENSG00000112343
ENSG00000156239
ENSG00000146376
ENSG00000156110
ENSG00000100401
ENSG00000256061
ENSG00000185904
ENSG00000185515
ENSG00000092621
ENSG00000129317
ENSG00000130309
ENSG00000100297
ENSG00000140497
ENSG00000161057
ENSG00000110200
ENSG00000160050
ENSG00000145050
ENSG00000185420
ENSG00000156463
ENSG00000149196
ENSG00000225265
ENSG00000120992
ENSG00000267106
ENSG00000029639
ENSG00000187118
ENSG00000167393
ENSG00000139641
ENSG00000160014
ENSG00000100632
ENSG00000175305
ENSG00000102699
ENSG00000132196
ENSG00000147874
ENSG00000120053
ENSG00000268089
ENSG00000130348
ENSG00000150316
ENSG00000254870
ENSG00000110074
ENSG00000075624
ENSG00000166263
ENSG00000163297
ENSG00000138942
ENSG00000254505
ENSG00000187713
ENSG00000139350
ENSG00000188010
ENSG00000122483
ENSG00000172172
ENSG00000157778
ENSG00000171202
ENSG00000127989
ENSG00000144120
ENSG00000153310
ENSG00000164305
ENSG00000009844
ENSG00000137996
ENSG00000185627
ENSG00000142227
ENSG00000152784
ENSG00000130529
ENSG00000145354
ENSG00000103994
ENSG00000196656
ENSG00000197702
ENSG00000267508
ENSG00000206562
ENSG00000104369
ENSG00000130695
ENSG00000114395
ENSG00000139926
ENSG00000120675
ENSG00000178127
ENSG00000178104
ENSG00000173915
ENSG00000100902
ENSG00000197728
ENSG00000182718
ENSG00000164096
ENSG00000143499
ENSG00000101182
ENSG00000160193
ENSG00000213297
ENSG00000040341
ENSG00000180185
ENSG00000184009
ENSG00000166452
ENSG00000100744
ENSG00000100804
ENSG00000012174
ENSG00000179933
ENSG00000135930
ENSG00000111424
ENSG00000138430
ENSG00000285508
ENSG00000023228
ENSG00000152240
ENSG00000172667
ENSG00000005020
ENSG00000171155
ENSG00000145014
ENSG00000241316
ENSG00000278615
ENSG00000272921
ENSG00000117682
ENSG00000137038
ENSG00000136631
ENSG00000125354
ENSG00000124562
ENSG00000159788
ENSG00000129353
ENSG00000186575
ENSG00000175595
ENSG00000172590
ENSG00000196636
ENSG00000153132
ENSG00000181004
ENSG00000137404
ENSG00000279810
ENSG00000066322
ENSG00000206053
ENSG00000122565
ENSG00000168803
ENSG00000075213
ENSG00000111328
ENSG00000041880
ENSG00000255983
ENSG00000162819
ENSG00000137720
ENSG00000117543
ENSG00000168615
ENSG00000123570
ENSG00000022277
ENSG00000253293
ENSG00000116489
ENSG00000103591
ENSG00000164919
ENSG00000132541
ENSG00000082213
ENSG00000197712
ENSG00000148688
ENSG00000164611
ENSG00000163933
ENSG00000180964
ENSG00000197124
ENSG00000165244
ENSG00000139133
ENSG00000258311
ENSG00000184924
ENSG00000105568
ENSG00000119471
ENSG00000143545
ENSG00000149054
ENSG00000167325
ENSG00000134910
ENSG00000166135
ENSG00000130720
ENSG00000011143
ENSG00000134490
ENSG00000152147
ENSG00000163743
ENSG00000120860
ENSG00000157379
ENSG00000267855
ENSG00000053770
ENSG00000115661
ENSG00000114744
ENSG00000138071
ENSG00000198721
ENSG00000182117
ENSG00000143106
ENSG00000168461
ENSG00000103485
ENSG00000164104
ENSG00000109689
ENSG00000131080
ENSG00000100823
ENSG00000170917
ENSG00000184840
ENSG00000164253
ENSG00000112977
ENSG00000135931
ENSG00000261312
ENSG00000244187
ENSG00000213337
ENSG00000140319
ENSG00000120333
ENSG00000113845
ENSG00000141367
ENSG00000251669
ENSG00000165660
ENSG00000225855
ENSG00000155330
ENSG00000108094
ENSG00000149782
ENSG00000125611
ENSG00000225210
ENSG00000184432
ENSG00000172939
ENSG00000115233
ENSG00000136738
ENSG00000152133
ENSG00000107566
ENSG00000130816
ENSG00000140350
ENSG00000165312
ENSG00000051825
ENSG00000116288
ENSG00000135341
ENSG00000172456
ENSG00000143079
ENSG00000103275
ENSG00000136379
ENSG00000159352
ENSG00000165092
ENSG00000213523
ENSG00000159176
ENSG00000147459
ENSG00000155906
ENSG00000137752
ENSG00000198774
ENSG00000100347
ENSG00000112514
ENSG00000006715
ENSG00000132718
ENSG00000143183
ENSG00000136319
ENSG00000072864
ENSG00000221955
ENSG00000124641
ENSG00000182712
ENSG00000176623
ENSG00000100479
ENSG00000132591
ENSG00000205323
ENSG00000087111
ENSG00000113734
ENSG00000183155
ENSG00000244038
ENSG00000176340
ENSG00000178694
ENSG00000111358
ENSG00000100439
ENSG00000198380
ENSG00000145431
ENSG00000173540
ENSG00000215559
ENSG00000077549
ENSG00000122512
ENSG00000151881
ENSG00000174059
ENSG00000108666
ENSG00000143315
ENSG00000164815
ENSG00000078237
ENSG00000139233
ENSG00000131849
ENSG00000167118
ENSG00000135900
ENSG00000217555
ENSG00000129534
ENSG00000149548
ENSG00000100417
ENSG00000176454
ENSG00000146733
ENSG00000131732
ENSG00000050130
ENSG00000111669
ENSG00000124357
ENSG00000100749
ENSG00000135457
ENSG00000158427
ENSG00000155254
ENSG00000171566
ENSG00000101132
ENSG00000163535
ENSG00000100319
ENSG00000173085
ENSG00000196154
ENSG00000069329
ENSG00000196975
ENSG00000103051
ENSG00000269968
ENSG00000255062
ENSG00000197594
ENSG00000008018
ENSG00000100387
ENSG00000081870
ENSG00000118939
ENSG00000013503
ENSG00000060339
ENSG00000162961
ENSG00000108100
ENSG00000196353
ENSG00000175334
ENSG00000113569
ENSG00000138663
ENSG00000119718
ENSG00000108788
ENSG00000125995
ENSG00000196922
ENSG00000088298
ENSG00000259112
ENSG00000153130
ENSG00000068796
ENSG00000010256
ENSG00000106610
ENSG00000184209
ENSG00000126768
ENSG00000138698
ENSG00000259479
ENSG00000119640
ENSG00000156709
ENSG00000154723
ENSG00000100028
ENSG00000100504
ENSG00000139173
ENSG00000164162
ENSG00000138435
ENSG00000134440
ENSG00000171497
ENSG00000132432
ENSG00000148444
ENSG00000166801
ENSG00000166845
ENSG00000165416
ENSG00000105968
ENSG00000197894
ENSG00000174744
ENSG00000148950
ENSG00000227617
ENSG00000138363
ENSG00000167380
ENSG00000091732
ENSG00000129083
ENSG00000186448
ENSG00000213024
ENSG00000246640
ENSG00000154719
ENSG00000243514
ENSG00000156795
ENSG00000105829
ENSG00000129515
ENSG00000198258
ENSG00000172113
ENSG00000167315
ENSG00000284292
ENSG00000124172
ENSG00000172269
ENSG00000139180
ENSG00000106605
ENSG00000161980
ENSG00000182481
ENSG00000138760
ENSG00000163155
ENSG00000261771
ENSG00000125841
ENSG00000162813
ENSG00000154473
ENSG00000111237
ENSG00000213799
ENSG00000170759
ENSG00000123600
ENSG00000117528
ENSG00000152455
ENSG00000156931
ENSG00000062598
ENSG00000070669
ENSG00000106477
ENSG00000128394
ENSG00000198176
ENSG00000183978
ENSG00000181544
ENSG00000099341
ENSG00000137364
ENSG00000135775
ENSG00000104325
ENSG00000132256
ENSG00000129559
ENSG00000166167
ENSG00000087302
ENSG00000145781
ENSG00000183011
ENSG00000075914
ENSG00000125445
ENSG00000114738
ENSG00000225697
ENSG00000131473
ENSG00000126247
ENSG00000124380
ENSG00000167085
ENSG00000125971
ENSG00000166337
ENSG00000138495
ENSG00000161217
ENSG00000174886
ENSG00000168288
ENSG00000181852
ENSG00000149792
ENSG00000154079
ENSG00000140263
ENSG00000152223
ENSG00000256646
ENSG00000138303
ENSG00000171617
ENSG00000239900
ENSG00000104765
ENSG00000138613
ENSG00000242485
ENSG00000083099
ENSG00000169288
ENSG00000168002
ENSG00000151287
ENSG00000151806
ENSG00000121766
ENSG00000184900
ENSG00000198464
ENSG00000103005
ENSG00000203778
ENSG00000137500
ENSG00000230533
ENSG00000169299
ENSG00000119401
ENSG00000116120
ENSG00000167562
ENSG00000178295
ENSG00000273173
ENSG00000247556
ENSG00000198865
ENSG00000124783
ENSG00000154511
ENSG00000124733
ENSG00000176393
ENSG00000140598
ENSG00000158042
ENSG00000204520
ENSG00000172292
ENSG00000166171
ENSG00000139168
ENSG00000112208
ENSG00000102007
ENSG00000064652
ENSG00000110013
ENSG00000137040
ENSG00000197372
ENSG00000151366
ENSG00000169067
ENSG00000116237
ENSG00000198429
ENSG00000166333
ENSG00000095261
ENSG00000143771
ENSG00000185651
ENSG00000135069
ENSG00000182362
ENSG00000101844
ENSG00000035141
ENSG00000213585
ENSG00000113597
ENSG00000151148
ENSG00000167272
ENSG00000128581
ENSG00000143575
ENSG00000048544
ENSG00000181007
ENSG00000116030
ENSG00000168754
ENSG00000185825
ENSG00000111110
ENSG00000170445
ENSG00000010219
ENSG00000136485
ENSG00000179152
ENSG00000165283
ENSG00000113068
ENSG00000146416
ENSG00000101247
ENSG00000100395
ENSG00000112685
ENSG00000153044
ENSG00000100764
ENSG00000126267
ENSG00000155393
ENSG00000285053
ENSG00000112584
ENSG00000160352
ENSG00000124356
ENSG00000197056
ENSG00000196214
ENSG00000124541
ENSG00000197713
ENSG00000168090
ENSG00000108439
ENSG00000137168
ENSG00000124343
ENSG00000151849
ENSG00000147586
ENSG00000179021
ENSG00000135336
ENSG00000162929
ENSG00000086666
ENSG00000038002
ENSG00000267575
ENSG00000142606
ENSG00000117450
ENSG00000135974
ENSG00000091483
ENSG00000124279
ENSG00000146263
ENSG00000105341
ENSG00000225973
ENSG00000126106
ENSG00000196455
ENSG00000198496
ENSG00000196655
ENSG00000100296
ENSG00000272478
ENSG00000173705
ENSG00000145715
ENSG00000233184
ENSG00000085760
ENSG00000104979
ENSG00000238045
ENSG00000169189
ENSG00000163636
ENSG00000142892
ENSG00000182197
ENSG00000092208
ENSG00000177830
ENSG00000166086
ENSG00000122873
ENSG00000165629
ENSG00000087191
ENSG00000113368
ENSG00000144048
ENSG00000243927
ENSG00000133731
ENSG00000108826
ENSG00000167747
ENSG00000137806
ENSG00000137269
ENSG00000230384
ENSG00000113048
ENSG00000074696
ENSG00000156687
ENSG00000103494
ENSG00000167460
ENSG00000137710
ENSG00000254901
ENSG00000176102
ENSG00000172340
ENSG00000130349
ENSG00000117899
ENSG00000133142
ENSG00000170860
ENSG00000243667
ENSG00000164168
ENSG00000270100
ENSG00000136731
ENSG00000144306
ENSG00000123297
ENSG00000075131
ENSG00000105894
ENSG00000120265
ENSG00000115486
ENSG00000198121
ENSG00000115750
ENSG00000166794
ENSG00000266472
ENSG00000165948
ENSG00000165672
ENSG00000167770
ENSG00000164902
ENSG00000185608
ENSG00000121022
ENSG00000102753
ENSG00000115652
ENSG00000170473
ENSG00000166681
ENSG00000014641
ENSG00000111652
ENSG00000170266
ENSG00000114209
ENSG00000070540
ENSG00000157823
ENSG00000171806
ENSG00000124532
ENSG00000124444
ENSG00000115170
ENSG00000092607
ENSG00000103671
ENSG00000138796
ENSG00000197535
ENSG00000176208
ENSG00000121073
ENSG00000136448
ENSG00000140526
ENSG00000011376
ENSG00000204444
ENSG00000119616
ENSG00000151239
ENSG00000215305
ENSG00000112759
ENSG00000143374
ENSG00000135778
ENSG00000119321
ENSG00000006634
ENSG00000198912
ENSG00000136247
ENSG00000115539
ENSG00000134996
ENSG00000204435
ENSG00000157020
ENSG00000197021
ENSG00000148484
ENSG00000175792
ENSG00000159259
ENSG00000087502
ENSG00000175575
ENSG00000155097
ENSG00000071537
ENSG00000160563
ENSG00000144840
ENSG00000196419
ENSG00000177628
ENSG00000101868
ENSG00000185313
ENSG00000108960
ENSG00000255317
ENSG00000205629
ENSG00000111875
ENSG00000172171
ENSG00000285330
ENSG00000256040
ENSG00000158793
ENSG00000249963
ENSG00000204539
ENSG00000255065
ENSG00000256500
ENSG00000276476
ENSG00000217416
ENSG00000275113
